0618__1592462260653015804
9
2022 917 302 142 0.9999808 
114 61 531 691 0.4301978 
1115 439 887 444 0.22494988 
224 1427 595 558 0.15498121 
1322 -8 527 564 0.0918812 
2243 1449 65 49 0.07855477 
1737 -34 741 564 0.034852725 
1890 151 496 764 0.034022328 
856 -93 755 504 0.028371224 
