0618__1592462291588380466
13
815 797 101 67 0.9998436 
1937 197 455 765 0.23106664 
1133 461 895 401 0.22072226 
203 1432 594 548 0.16176553 
1288 -70 652 551 0.11578217 
-37 321 781 475 0.09154926 
115 -10 546 693 0.09027249 
369 17 499 664 0.04238426 
323 1590 640 524 0.025457526 
927 1446 619 576 0.021172121 
1792 -44 658 612 0.02041741 
1800 502 701 556 0.020273317 
1457 1407 828 518 0.020243311 
