0618__1592462297701172925
13
731 792 64 59 0.9999008 
1131 461 900 408 0.2427829 
262 1444 648 563 0.121783376 
185 -17 574 662 0.11201596 
1930 249 445 714 0.103345215 
1346 -65 607 556 0.098749906 
-37 322 763 473 0.057205673 
429 1635 750 426 0.049433716 
511 3 591 735 0.04406406 
1779 -3 658 555 0.031630654 
900 1432 630 598 0.030231148 
978 1359 840 450 0.021386126 
2248 1455 62 44 0.020114558 
