0618__1592462279567076425
14
1184 825 150 82 0.9999614 
1134 450 886 423 0.21064425 
258 1440 648 556 0.16854827 
2248 1447 63 50 0.09505943 
117 40 532 620 0.077178344 
-38 313 776 477 0.074682295 
1357 -95 606 633 0.06862379 
1975 227 399 781 0.0640293 
759 -38 530 641 0.05852151 
1045 -67 697 515 0.03748464 
1888 545 643 545 0.027963303 
999 1345 796 481 0.026600586 
474 1638 702 421 0.026103502 
1775 58 506 765 0.023431553 
