2020-06-19-00-41-04__1592498509116231711
10
228 779 92 83 0.99869484 
1693 323 709 519 0.9004713 
1167 482 808 395 0.528526 
264 1444 663 548 0.19449905 
875 1416 624 588 0.054007534 
1010 347 638 472 0.03042292 
1458 129 576 584 0.025808448 
1785 1529 727 537 0.025707811 
2250 1449 60 50 0.023143241 
1718 7 678 524 0.02092189 
