2020-05-16-15-40-20_0__1589614831539442219
13
350 547 409 577 0.9999937 
204 1582 810 380 0.64845103 
549 1620 734 453 0.50298566 
4 915 57 148 0.1732446 
447 394 529 646 0.14488608 
467 483 262 398 0.117950514 
84 787 514 691 0.08027221 
576 913 609 595 0.07662281 
164 355 540 626 0.06366674 
-20 1345 698 524 0.042107053 
5 782 109 351 0.030470202 
557 1275 722 475 0.025908297 
324 805 516 509 0.022737779 
