2020-05-16-15-31-21_0__1589614576259889974
29
842 897 84 204 0.9987495 
281 1000 27 70 0.96317333 
318 984 32 81 0.96025485 
368 1007 50 63 0.94450957 
2435 954 26 45 0.5281006 
294 996 33 75 0.49540153 
1220 944 36 83 0.39020407 
1675 960 37 77 0.29105693 
20 1490 637 568 0.21767657 
334 995 40 75 0.13185139 
0 1021 13 40 0.063834846 
2523 953 15 42 0.06132202 
654 1495 671 501 0.059930917 
2356 944 28 55 0.04713318 
2547 954 16 41 0.04680136 
1309 987 13 21 0.04513565 
2068 967 17 33 0.04339679 
2508 1889 50 37 0.041205645 
1740 971 16 37 0.040501162 
2013 1993 60 35 0.03397704 
1785 1541 938 440 0.031282395 
1452 1699 915 361 0.029466778 
2423 936 32 70 0.02859934 
2020 957 15 45 0.027081072 
366 934 48 149 0.026698256 
2524 934 23 68 0.026348919 
-3 1002 22 68 0.025650721 
308 1006 32 54 0.022661949 
373 1030 40 27 0.020331817 
