2020-06-18-21-28-23__1592486911194094884
11
190 759 52 55 0.9982948 
1119 450 882 431 0.16626506 
1881 243 542 734 0.14322461 
266 -66 463 779 0.107582375 
748 -44 609 630 0.0971382 
5 314 758 486 0.09691568 
249 1446 645 552 0.08663833 
24 32 507 664 0.06679049 
891 1424 630 598 0.04480543 
2244 1447 65 54 0.037559204 
406 -30 621 529 0.021705046 
