2020-05-16-15-21-44_0__1589613779419821906
15
1344 1014 137 64 0.9999198 
1637 701 214 397 0.99987304 
2333 585 276 581 0.9995252 
1619 986 48 67 0.9445683 
1198 1011 47 27 0.8942586 
2255 432 511 631 0.33174795 
2407 474 211 441 0.2608471 
1389 1007 85 42 0.16496885 
1447 472 465 687 0.080424905 
1566 727 398 532 0.05944093 
2323 924 260 274 0.042514004 
1586 1630 648 206 0.025709394 
1643 549 545 688 0.025533328 
679 1209 835 487 0.024207328 
1571 1001 24 37 0.023782099 
