2020-05-16-15-28-15_0__1589614109189734893
19
139 1017 144 120 0.9997384 
391 1009 42 54 0.9354835 
2144 934 55 113 0.92070967 
1 1002 30 81 0.814832 
1567 979 26 40 0.66003555 
1425 1663 932 385 0.17206746 
2014 1992 60 38 0.07746777 
14 1530 623 532 0.07299302 
1804 1589 920 403 0.053843025 
163 878 137 247 0.041450128 
2137 986 53 49 0.038688943 
717 1003 14 15 0.032488134 
5 965 44 132 0.029074162 
2042 542 611 581 0.024744445 
494 997 16 29 0.024403805 
572 997 19 26 0.024002573 
1056 679 426 643 0.021980789 
1957 977 32 24 0.021398522 
2129 885 91 175 0.021304008 
