2020-05-16-15-31-21_0__1589614283350339142
19
498 961 45 123 0.9517422 
375 1003 49 66 0.9176101 
261 992 38 96 0.88983035 
1591 1676 847 326 0.7032169 
1680 964 41 46 0.19172345 
0 1057 51 123 0.15660132 
1472 968 14 46 0.14484851 
1581 974 13 34 0.08516199 
274 1023 30 56 0.051819284 
2197 978 18 15 0.044673197 
723 1003 14 14 0.041039117 
371 946 65 145 0.03718826 
2015 1992 61 38 0.031807583 
1474 951 19 73 0.030631527 
801 1000 14 17 0.026079135 
456 944 49 139 0.025206855 
1751 988 16 14 0.020634271 
1553 973 15 36 0.020379692 
1306 979 18 33 0.020021781 
