2020-05-16-15-21-44_0__1589613713963227343
7
1164 1026 101 46 0.9982315 
1303 1009 58 29 0.97993326 
1598 1018 40 24 0.927535 
1961 998 19 29 0.22251059 
2396 1003 21 32 0.08339793 
1570 1006 16 17 0.052488938 
1888 1000 19 24 0.022205703 
