2020-05-16-15-11-45_0__1589613144143211602
12
229 1044 188 89 0.9998727 
2188 978 48 87 0.99613094 
925 1026 58 79 0.991327 
2019 995 40 64 0.98941505 
1567 1049 22 19 0.26310298 
373 1848 640 205 0.18045406 
21 1825 639 194 0.15897954 
2295 1032 15 17 0.04366959 
2442 1028 25 26 0.03453486 
2437 1009 39 47 0.029135792 
871 1000 131 119 0.028212095 
1559 1039 38 31 0.020398425 
