2020-05-16-15-11-45_0__1589613133793464135
12
112 1044 197 95 0.9998596 
2225 981 46 81 0.9961358 
774 1048 66 62 0.9926279 
2041 997 41 64 0.9841128 
1513 1049 27 30 0.8309574 
2390 1018 26 33 0.73735005 
15 1608 750 459 0.06531607 
1466 1037 15 13 0.058309674 
774 1021 61 62 0.037833903 
2311 1033 14 16 0.035085645 
9 1283 192 120 0.029250713 
764 992 90 117 0.02205819 
