2020-05-16-15-31-21_0__1589614342393821194
36
1255 879 65 196 0.99334466 
344 999 31 71 0.9836146 
418 981 36 85 0.96382594 
377 1026 36 35 0.8978553 
2164 981 36 34 0.77653027 
392 996 39 71 0.38236868 
359 1010 38 54 0.20787397 
1801 947 31 66 0.20230424 
2016 974 19 31 0.15774003 
1965 950 26 58 0.13993973 
2270 982 22 20 0.13905187 
1737 967 16 42 0.1295116 
1508 967 16 45 0.11553425 
1376 957 23 67 0.08267241 
1448 1699 951 344 0.07395093 
1662 971 14 38 0.07146282 
1435 969 14 44 0.07075337 
1934 962 18 43 0.05734238 
715 1000 14 17 0.053609096 
406 1011 40 50 0.053568568 
1290 1424 830 419 0.050282117 
1744 1598 960 376 0.0490972 
379 988 30 82 0.045687165 
1348 969 14 44 0.042457975 
2013 1992 60 37 0.038703434 
849 1003 16 19 0.035461143 
270 1013 12 18 0.02992691 
1731 949 31 69 0.025353936 
2030 541 611 584 0.024997396 
1939 949 22 63 0.02292252 
1981 938 38 69 0.02272984 
1975 959 29 44 0.021812018 
2089 979 18 26 0.020935846 
1360 959 31 73 0.020204855 
1429 947 21 77 0.020201117 
2529 968 27 20 0.020154865 
