2020-06-19-00-41-04__1592498523017716377
9
653 831 298 166 0.9999707 
1806 393 715 535 0.68157244 
992 515 878 361 0.36619955 
206 1436 598 555 0.14752391 
499 420 715 437 0.09713455 
1328 416 840 458 0.032973412 
833 626 642 201 0.032817844 
332 1594 623 534 0.025586674 
11 546 119 245 0.02024402 
