2020-05-16-15-36-21_1__1589614585204960192
34
922 904 74 184 0.9969891 
324 988 36 81 0.9771153 
368 1015 52 57 0.92981666 
299 1004 24 59 0.91183674 
1639 964 37 70 0.737208 
1736 1600 859 359 0.54493624 
0 1002 24 69 0.45290396 
1598 1791 735 214 0.35848472 
2509 954 23 43 0.16955501 
-244 1644 931 399 0.11248122 
1231 953 27 72 0.10192181 
2500 961 20 35 0.07209402 
2523 955 17 42 0.07129596 
307 989 31 81 0.06491018 
518 1513 664 522 0.049329676 
2574 955 15 39 0.04825903 
1213 948 32 77 0.03969584 
0 967 36 117 0.03936953 
14 1381 646 596 0.03802295 
285 978 42 95 0.03180407 
374 1033 40 27 0.029836906 
343 1022 45 40 0.02966031 
1195 970 17 49 0.02857921 
257 1015 16 19 0.027248504 
2013 1993 60 35 0.02710562 
1585 968 17 43 0.027078245 
1720 974 18 32 0.026748182 
2515 934 27 74 0.02569358 
0 1024 15 40 0.024871785 
357 969 71 116 0.024090039 
332 985 53 96 0.024022343 
815 1657 599 204 0.022195194 
2163 1428 551 691 0.020778652 
2395 955 23 40 0.020182192 
