2020-06-18-21-35-05__1592487316606338211
13
2155 929 299 158 0.999931 
135 45 524 688 0.37420943 
289 1442 668 576 0.30829266 
1126 435 889 444 0.24601537 
1296 -44 581 556 0.1126749 
1429 1394 832 524 0.033887535 
1166 1432 696 590 0.033358805 
782 1626 887 420 0.028010715 
2251 1450 60 48 0.026353987 
1869 113 522 782 0.024243848 
1750 -53 752 581 0.024097752 
1829 550 641 587 0.023579879 
843 -102 759 519 0.023478383 
