2020-05-16-15-36-21_1__1589614617358829078
20
1081 923 58 144 0.99925274 
1325 937 64 126 0.9992281 
1436 1005 93 72 0.98908514 
363 1021 54 41 0.9168027 
73 995 40 70 0.661136 
16 1006 26 60 0.5789038 
1219 938 32 87 0.516395 
1703 1503 701 501 0.14987668 
35 1494 659 566 0.083090745 
358 980 61 100 0.05839988 
1244 1433 594 487 0.05435338 
1845 1683 769 264 0.054316107 
43 996 50 77 0.044423565 
1400 1356 800 480 0.040231757 
2519 974 15 17 0.036828943 
12 979 42 99 0.034438338 
507 1525 893 365 0.031091675 
1345 982 48 73 0.028685903 
1347 942 101 130 0.023237688 
2013 1993 60 34 0.020681886 
