2020-05-16-16-46-53_0__1589618904302329752
15
1451 970 45 82 0.969375 
2172 1310 680 529 0.85499644 
552 1016 24 28 0.6507649 
1280 1654 930 418 0.41087458 
742 1686 698 409 0.3898175 
498 1441 610 516 0.20671673 
2171 586 530 486 0.11635892 
1999 1453 620 420 0.10726122 
1715 1561 726 516 0.081983306 
1285 1002 17 25 0.07602865 
128 1561 805 380 0.0719244 
16 1000 18 31 0.048191354 
544 996 38 55 0.043068845 
1620 997 28 21 0.033133093 
1159 1898 306 155 0.023032019 
