2020-05-16-16-48-59_0__1589619083965846815
21
1067 957 68 106 0.9954423 
95 991 40 75 0.9757244 
1675 967 37 74 0.91463494 
1627 960 41 76 0.77515 
2211 1316 576 535 0.72906893 
1319 1432 750 567 0.6098897 
1651 966 41 73 0.5887368 
705 980 29 40 0.43663397 
2272 641 596 461 0.2572123 
2363 1226 240 438 0.15520167 
2115 528 534 538 0.0606495 
54 997 15 34 0.05636322 
1662 1604 781 497 0.053783894 
72 1665 926 333 0.04668479 
1659 949 63 113 0.04157899 
2214 775 404 270 0.03932572 
1994 1447 635 468 0.038071997 
-39 1769 672 267 0.028350776 
1068 1617 802 427 0.025325283 
1628 904 56 138 0.025218623 
81 965 67 114 0.022754261 
