2020-05-16-15-14-25_0__1589613296886838562
13
1318 844 145 224 0.9998472 
17 995 161 86 0.9998091 
1589 1014 36 26 0.9742662 
1396 849 113 216 0.972398 
1730 968 46 71 0.7161777 
18 742 145 354 0.17893936 
2200 1016 26 19 0.07594954 
1442 991 83 70 0.06805619 
450 1744 901 324 0.044108298 
2224 1006 32 27 0.030016283 
1545 1023 23 24 0.027186178 
1202 765 436 535 0.025089193 
24 1760 871 311 0.023624588 
